<?xml version="1.0" encoding="UTF-8"?>
<svg width="24px" height="23px" viewBox="0 0 24 23" version="1.1" xmlns="http://www.w3.org/2000/svg" xmlns:xlink="http://www.w3.org/1999/xlink">
    <!-- Generator: Sketch 55.2 (78181) - https://sketchapp.com -->
    <title>left-arrow</title>
    <desc>Created with Sketch.</desc>
    <g id="Page-1" stroke="none" stroke-width="1" fill="none" fill-rule="evenodd">
        <g id="left-arrow" transform="translate(12.219437, 12.143277) rotate(-90.000000) translate(-12.219437, -12.143277) translate(0.719437, 0.143277)" fill="#328FFA" fill-rule="nonzero">
            <g id="left-arrow-copy" transform="translate(11.500000, 12.000000) rotate(-90.000000) translate(-11.500000, -12.000000) translate(-0.500000, 0.500000)">
                <path d="M11.273,1.009 C11.717,0.565 12.416,0.565 12.86,1.009 C13.289,1.438 13.289,2.152 12.86,2.58 L4.813,10.627 L22.1811523,10.627 C22.8001523,10.627 23.3081523,11.119 23.3081523,11.738 C23.3081523,12.357 22.8001523,12.865 22.1811523,12.865 L4.813,12.865 L12.86,20.897 C13.289,21.341 13.289,22.056 12.86,22.484 C12.416,22.928 11.717,22.928 11.273,22.484 L1.321,12.532 C0.892,12.103 0.892,11.389 1.321,10.961 L11.273,1.009 Z" id="Shape"></path>
            </g>
        </g>
    </g>
</svg>